^C:\USERS\TEST0\ONEDRIVE\שולחן העבודה\SADNA\HELPER.CPP|C:\USERS\TEST0\ONEDRIVE\שולחן העבודה\SADNA\INDENTATIONEXCEPTION.CPP|C:\USERS\TEST0\ONEDRIVE\שולחן העבודה\SADNA\INTERPRETER.CPP|C:\USERS\TEST0\ONEDRIVE\שולחן העבודה\SADNA\PARSER.CPP|C:\USERS\TEST0\ONEDRIVE\שולחן העבודה\SADNA\TYPE.CPP
C:\USERS\TEST0\ONEDRIVE\שולחן העבודה\SADNA\X64\DEBUG\VC142.PDB
C:\USERS\TEST0\ONEDRIVE\שולחן העבודה\SADNA\X64\DEBUG\VC142.IDB
C:\USERS\TEST0\ONEDRIVE\שולחן העבודה\SADNA\X64\DEBUG\TYPE.OBJ
C:\USERS\TEST0\ONEDRIVE\שולחן העבודה\SADNA\X64\DEBUG\PARSER.OBJ
C:\USERS\TEST0\ONEDRIVE\שולחן העבודה\SADNA\X64\DEBUG\INTERPRETER.OBJ
C:\USERS\TEST0\ONEDRIVE\שולחן העבודה\SADNA\X64\DEBUG\INDENTATIONEXCEPTION.OBJ
C:\USERS\TEST0\ONEDRIVE\שולחן העבודה\SADNA\X64\DEBUG\HELPER.OBJ
^C:\USERS\TEST0\ONEDRIVE\שולחן העבודה\SADNA\HELPER.CPP
C:\USERS\TEST0\ONEDRIVE\שולחן העבודה\SADNA\X64\DEBUG\VC142.PDB
^C:\USERS\TEST0\ONEDRIVE\שולחן העבודה\SADNA\INDENTATIONEXCEPTION.CPP
C:\USERS\TEST0\ONEDRIVE\שולחן העבודה\SADNA\X64\DEBUG\VC142.PDB
^C:\USERS\TEST0\ONEDRIVE\שולחן העבודה\SADNA\BOOLEAN.CPP|C:\USERS\TEST0\ONEDRIVE\שולחן העבודה\SADNA\INTEGER.CPP|C:\USERS\TEST0\ONEDRIVE\שולחן העבודה\SADNA\PARSER.CPP|C:\USERS\TEST0\ONEDRIVE\שולחן העבודה\SADNA\SEQUENCE.CPP|C:\USERS\TEST0\ONEDRIVE\שולחן העבודה\SADNA\STRING.CPP|C:\USERS\TEST0\ONEDRIVE\שולחן העבודה\SADNA\SYNTAXEXCEPTION.CPP|C:\USERS\TEST0\ONEDRIVE\שולחן העבודה\SADNA\VOID.CPP
C:\USERS\TEST0\ONEDRIVE\שולחן העבודה\SADNA\X64\DEBUG\VC142.PDB
C:\USERS\TEST0\ONEDRIVE\שולחן העבודה\SADNA\X64\DEBUG\VC142.IDB
C:\USERS\TEST0\ONEDRIVE\שולחן העבודה\SADNA\X64\DEBUG\VOID.OBJ
C:\USERS\TEST0\ONEDRIVE\שולחן העבודה\SADNA\X64\DEBUG\SYNTAXEXCEPTION.OBJ
C:\USERS\TEST0\ONEDRIVE\שולחן העבודה\SADNA\X64\DEBUG\STRING.OBJ
C:\USERS\TEST0\ONEDRIVE\שולחן העבודה\SADNA\X64\DEBUG\SEQUENCE.OBJ
C:\USERS\TEST0\ONEDRIVE\שולחן העבודה\SADNA\X64\DEBUG\PARSER.OBJ
C:\USERS\TEST0\ONEDRIVE\שולחן העבודה\SADNA\X64\DEBUG\INTEGER.OBJ
C:\USERS\TEST0\ONEDRIVE\שולחן העבודה\SADNA\X64\DEBUG\BOOLEAN.OBJ
^C:\USERS\TEST0\ONEDRIVE\שולחן העבודה\SADNA\INTEGER.CPP|C:\USERS\TEST0\ONEDRIVE\שולחן העבודה\SADNA\INTERPRETER.CPP|C:\USERS\TEST0\ONEDRIVE\שולחן העבודה\SADNA\PARSER.CPP|C:\USERS\TEST0\ONEDRIVE\שולחן העבודה\SADNA\SYNTAXEXCEPTION.CPP|C:\USERS\TEST0\ONEDRIVE\שולחן העבודה\SADNA\TYPE.CPP
C:\USERS\TEST0\ONEDRIVE\שולחן העבודה\SADNA\X64\DEBUG\VC142.PDB
C:\USERS\TEST0\ONEDRIVE\שולחן העבודה\SADNA\X64\DEBUG\VC142.IDB
C:\USERS\TEST0\ONEDRIVE\שולחן העבודה\SADNA\X64\DEBUG\TYPE.OBJ
C:\USERS\TEST0\ONEDRIVE\שולחן העבודה\SADNA\X64\DEBUG\SYNTAXEXCEPTION.OBJ
C:\USERS\TEST0\ONEDRIVE\שולחן העבודה\SADNA\X64\DEBUG\PARSER.OBJ
C:\USERS\TEST0\ONEDRIVE\שולחן העבודה\SADNA\X64\DEBUG\INTERPRETER.OBJ
^C:\USERS\TEST0\ONEDRIVE\שולחן העבודה\SADNA\INTEGER.CPP|C:\USERS\TEST0\ONEDRIVE\שולחן העבודה\SADNA\INTERPRETER.CPP|C:\USERS\TEST0\ONEDRIVE\שולחן העבודה\SADNA\PARSER.CPP|C:\USERS\TEST0\ONEDRIVE\שולחן העבודה\SADNA\TYPE.CPP
C:\USERS\TEST0\ONEDRIVE\שולחן העבודה\SADNA\X64\DEBUG\VC142.PDB
C:\USERS\TEST0\ONEDRIVE\שולחן העבודה\SADNA\X64\DEBUG\VC142.IDB
C:\USERS\TEST0\ONEDRIVE\שולחן העבודה\SADNA\X64\DEBUG\TYPE.OBJ
C:\USERS\TEST0\ONEDRIVE\שולחן העבודה\SADNA\X64\DEBUG\PARSER.OBJ
C:\USERS\TEST0\ONEDRIVE\שולחן העבודה\SADNA\X64\DEBUG\INTERPRETER.OBJ
C:\USERS\TEST0\ONEDRIVE\שולחן העבודה\SADNA\X64\DEBUG\INTEGER.OBJ
^C:\USERS\TEST0\ONEDRIVE\שולחן העבודה\SADNA\BOOLEAN.CPP|C:\USERS\TEST0\ONEDRIVE\שולחן העבודה\SADNA\HELPER.CPP|C:\USERS\TEST0\ONEDRIVE\שולחן העבודה\SADNA\INDENTATIONEXCEPTION.CPP|C:\USERS\TEST0\ONEDRIVE\שולחן העבודה\SADNA\INTEGER.CPP|C:\USERS\TEST0\ONEDRIVE\שולחן העבודה\SADNA\INTERPRETER.CPP|C:\USERS\TEST0\ONEDRIVE\שולחן העבודה\SADNA\PARSER.CPP|C:\USERS\TEST0\ONEDRIVE\שולחן העבודה\SADNA\SEQUENCE.CPP|C:\USERS\TEST0\ONEDRIVE\שולחן העבודה\SADNA\STRING.CPP|C:\USERS\TEST0\ONEDRIVE\שולחן העבודה\SADNA\SYNTAXEXCEPTION.CPP|C:\USERS\TEST0\ONEDRIVE\שולחן העבודה\SADNA\TYPE.CPP|C:\USERS\TEST0\ONEDRIVE\שולחן העבודה\SADNA\VOID.CPP
C:\USERS\TEST0\ONEDRIVE\שולחן העבודה\SADNA\X64\DEBUG\VC143.PDB
C:\USERS\TEST0\ONEDRIVE\שולחן העבודה\SADNA\X64\DEBUG\VC143.IDB
C:\USERS\TEST0\ONEDRIVE\שולחן העבודה\SADNA\X64\DEBUG\VOID.OBJ
C:\USERS\TEST0\ONEDRIVE\שולחן העבודה\SADNA\X64\DEBUG\TYPE.OBJ
C:\USERS\TEST0\ONEDRIVE\שולחן העבודה\SADNA\X64\DEBUG\SYNTAXEXCEPTION.OBJ
C:\USERS\TEST0\ONEDRIVE\שולחן העבודה\SADNA\X64\DEBUG\STRING.OBJ
C:\USERS\TEST0\ONEDRIVE\שולחן העבודה\SADNA\X64\DEBUG\SEQUENCE.OBJ
C:\USERS\TEST0\ONEDRIVE\שולחן העבודה\SADNA\X64\DEBUG\INTEGER.OBJ
C:\USERS\TEST0\ONEDRIVE\שולחן העבודה\SADNA\X64\DEBUG\INDENTATIONEXCEPTION.OBJ
C:\USERS\TEST0\ONEDRIVE\שולחן העבודה\SADNA\X64\DEBUG\HELPER.OBJ
C:\USERS\TEST0\ONEDRIVE\שולחן העבודה\SADNA\X64\DEBUG\BOOLEAN.OBJ
^C:\USERS\TEST0\ONEDRIVE\שולחן העבודה\SADNA\INTERPRETER.CPP|C:\USERS\TEST0\ONEDRIVE\שולחן העבודה\SADNA\PARSER.CPP|C:\USERS\TEST0\ONEDRIVE\שולחן העבודה\SADNA\SEQUENCE.CPP|C:\USERS\TEST0\ONEDRIVE\שולחן העבודה\SADNA\VOID.CPP
C:\USERS\TEST0\ONEDRIVE\שולחן העבודה\SADNA\X64\DEBUG\VC143.PDB
C:\USERS\TEST0\ONEDRIVE\שולחן העבודה\SADNA\X64\DEBUG\VC143.IDB
C:\USERS\TEST0\ONEDRIVE\שולחן העבודה\SADNA\X64\DEBUG\VOID.OBJ
C:\USERS\TEST0\ONEDRIVE\שולחן העבודה\SADNA\X64\DEBUG\SEQUENCE.OBJ
C:\USERS\TEST0\ONEDRIVE\שולחן העבודה\SADNA\X64\DEBUG\PARSER.OBJ
C:\USERS\TEST0\ONEDRIVE\שולחן העבודה\SADNA\X64\DEBUG\INTERPRETER.OBJ
^C:\USERS\TEST0\ONEDRIVE\שולחן העבודה\SADNA\PARSER.CPP|C:\USERS\TEST0\ONEDRIVE\שולחן העבודה\SADNA\SYNTAXEXCEPTION.CPP
C:\USERS\TEST0\ONEDRIVE\שולחן העבודה\SADNA\X64\DEBUG\VC143.PDB
C:\USERS\TEST0\ONEDRIVE\שולחן העבודה\SADNA\X64\DEBUG\VC143.IDB
C:\USERS\TEST0\ONEDRIVE\שולחן העבודה\SADNA\X64\DEBUG\SYNTAXEXCEPTION.OBJ
C:\USERS\TEST0\ONEDRIVE\שולחן העבודה\SADNA\X64\DEBUG\PARSER.OBJ
^C:\USERS\TEST0\ONEDRIVE\שולחן העבודה\SADNA\SYNTAXEXCEPTION.CPP
C:\USERS\TEST0\ONEDRIVE\שולחן העבודה\SADNA\X64\DEBUG\VC143.PDB
^C:\USERS\TEST0\ONEDRIVE\שולחן העבודה\SADNA\INTERPRETER.CPP|C:\USERS\TEST0\ONEDRIVE\שולחן העבודה\SADNA\PARSER.CPP
C:\USERS\TEST0\ONEDRIVE\שולחן העבודה\SADNA\X64\DEBUG\VC143.PDB
C:\USERS\TEST0\ONEDRIVE\שולחן העבודה\SADNA\X64\DEBUG\VC143.IDB
C:\USERS\TEST0\ONEDRIVE\שולחן העבודה\SADNA\X64\DEBUG\PARSER.OBJ
C:\USERS\TEST0\ONEDRIVE\שולחן העבודה\SADNA\X64\DEBUG\INTERPRETER.OBJ
^C:\USERS\TEST0\ONEDRIVE\שולחן העבודה\SADNA\PARSER.CPP|C:\USERS\TEST0\ONEDRIVE\שולחן העבודה\SADNA\SEQUENCE.CPP|C:\USERS\TEST0\ONEDRIVE\שולחן העבודה\SADNA\TYPE.CPP|C:\USERS\TEST0\ONEDRIVE\שולחן העבודה\SADNA\VOID.CPP
C:\USERS\TEST0\ONEDRIVE\שולחן העבודה\SADNA\X64\DEBUG\VC143.PDB
C:\USERS\TEST0\ONEDRIVE\שולחן העבודה\SADNA\X64\DEBUG\VC143.IDB
C:\USERS\TEST0\ONEDRIVE\שולחן העבודה\SADNA\X64\DEBUG\VOID.OBJ
C:\USERS\TEST0\ONEDRIVE\שולחן העבודה\SADNA\X64\DEBUG\TYPE.OBJ
C:\USERS\TEST0\ONEDRIVE\שולחן העבודה\SADNA\X64\DEBUG\SEQUENCE.OBJ
^C:\USERS\TEST0\ONEDRIVE\שולחן העבודה\SADNA\BOOLEAN.CPP|C:\USERS\TEST0\ONEDRIVE\שולחן העבודה\SADNA\INTEGER.CPP|C:\USERS\TEST0\ONEDRIVE\שולחן העבודה\SADNA\INTERPRETER.CPP|C:\USERS\TEST0\ONEDRIVE\שולחן העבודה\SADNA\PARSER.CPP|C:\USERS\TEST0\ONEDRIVE\שולחן העבודה\SADNA\SEQUENCE.CPP|C:\USERS\TEST0\ONEDRIVE\שולחן העבודה\SADNA\STRING.CPP|C:\USERS\TEST0\ONEDRIVE\שולחן העבודה\SADNA\TYPE.CPP|C:\USERS\TEST0\ONEDRIVE\שולחן העבודה\SADNA\VOID.CPP
C:\USERS\TEST0\ONEDRIVE\שולחן העבודה\SADNA\X64\DEBUG\VC143.PDB
C:\USERS\TEST0\ONEDRIVE\שולחן העבודה\SADNA\X64\DEBUG\VC143.IDB
C:\USERS\TEST0\ONEDRIVE\שולחן העבודה\SADNA\X64\DEBUG\VOID.OBJ
C:\USERS\TEST0\ONEDRIVE\שולחן העבודה\SADNA\X64\DEBUG\TYPE.OBJ
C:\USERS\TEST0\ONEDRIVE\שולחן העבודה\SADNA\X64\DEBUG\STRING.OBJ
C:\USERS\TEST0\ONEDRIVE\שולחן העבודה\SADNA\X64\DEBUG\SEQUENCE.OBJ
C:\USERS\TEST0\ONEDRIVE\שולחן העבודה\SADNA\X64\DEBUG\PARSER.OBJ
C:\USERS\TEST0\ONEDRIVE\שולחן העבודה\SADNA\X64\DEBUG\INTERPRETER.OBJ
C:\USERS\TEST0\ONEDRIVE\שולחן העבודה\SADNA\X64\DEBUG\INTEGER.OBJ
C:\USERS\TEST0\ONEDRIVE\שולחן העבודה\SADNA\X64\DEBUG\BOOLEAN.OBJ
^C:\USERS\TEST0\ONEDRIVE\שולחן העבודה\SADNA\BOOLEAN.CPP
C:\USERS\TEST0\ONEDRIVE\שולחן העבודה\SADNA\X64\DEBUG\VC143.PDB
^C:\USERS\TEST0\ONEDRIVE\שולחן העבודה\SADNA\SEQUENCE.CPP
C:\USERS\TEST0\ONEDRIVE\שולחן העבודה\SADNA\X64\DEBUG\VC143.PDB
^C:\USERS\TEST0\ONEDRIVE\שולחן העבודה\SADNA\TYPE.CPP
C:\USERS\TEST0\ONEDRIVE\שולחן העבודה\SADNA\X64\DEBUG\VC143.PDB
^C:\USERS\TEST0\ONEDRIVE\שולחן העבודה\SADNA\VOID.CPP
C:\USERS\TEST0\ONEDRIVE\שולחן העבודה\SADNA\X64\DEBUG\VC143.PDB
^C:\USERS\TEST0\ONEDRIVE\שולחן העבודה\SADNA\INTEGER.CPP|C:\USERS\TEST0\ONEDRIVE\שולחן העבודה\SADNA\INTERPRETER.CPP|C:\USERS\TEST0\ONEDRIVE\שולחן העבודה\SADNA\PARSER.CPP|C:\USERS\TEST0\ONEDRIVE\שולחן העבודה\SADNA\STRING.CPP
C:\USERS\TEST0\ONEDRIVE\שולחן העבודה\SADNA\X64\DEBUG\VC143.PDB
C:\USERS\TEST0\ONEDRIVE\שולחן העבודה\SADNA\X64\DEBUG\VC143.IDB
C:\USERS\TEST0\ONEDRIVE\שולחן העבודה\SADNA\X64\DEBUG\STRING.OBJ
C:\USERS\TEST0\ONEDRIVE\שולחן העבודה\SADNA\X64\DEBUG\PARSER.OBJ
C:\USERS\TEST0\ONEDRIVE\שולחן העבודה\SADNA\X64\DEBUG\INTERPRETER.OBJ
C:\USERS\TEST0\ONEDRIVE\שולחן העבודה\SADNA\X64\DEBUG\INTEGER.OBJ
^C:\USERS\TEST0\ONEDRIVE\שולחן העבודה\SADNA\INTEGER.CPP
C:\USERS\TEST0\ONEDRIVE\שולחן העבודה\SADNA\X64\DEBUG\VC143.PDB
^C:\USERS\TEST0\ONEDRIVE\שולחן העבודה\SADNA\INTERPRETER.CPP
C:\USERS\TEST0\ONEDRIVE\שולחן העבודה\SADNA\X64\DEBUG\VC143.PDB
^C:\USERS\TEST0\ONEDRIVE\שולחן העבודה\SADNA\PARSER.CPP
C:\USERS\TEST0\ONEDRIVE\שולחן העבודה\SADNA\X64\DEBUG\VC143.PDB
^C:\USERS\TEST0\ONEDRIVE\שולחן העבודה\SADNA\STRING.CPP
C:\USERS\TEST0\ONEDRIVE\שולחן העבודה\SADNA\X64\DEBUG\VC143.PDB
