^C:\USERS\TEST0\ONEDRIVE\שולחן העבודה\SADNA\X64\DEBUG\BOOLEAN.OBJ|C:\USERS\TEST0\ONEDRIVE\שולחן העבודה\SADNA\X64\DEBUG\HELPER.OBJ|C:\USERS\TEST0\ONEDRIVE\שולחן העבודה\SADNA\X64\DEBUG\INDENTATIONEXCEPTION.OBJ|C:\USERS\TEST0\ONEDRIVE\שולחן העבודה\SADNA\X64\DEBUG\INTEGER.OBJ|C:\USERS\TEST0\ONEDRIVE\שולחן העבודה\SADNA\X64\DEBUG\INTERPRETER.OBJ|C:\USERS\TEST0\ONEDRIVE\שולחן העבודה\SADNA\X64\DEBUG\PARSER.OBJ|C:\USERS\TEST0\ONEDRIVE\שולחן העבודה\SADNA\X64\DEBUG\SEQUENCE.OBJ|C:\USERS\TEST0\ONEDRIVE\שולחן העבודה\SADNA\X64\DEBUG\STRING.OBJ|C:\USERS\TEST0\ONEDRIVE\שולחן העבודה\SADNA\X64\DEBUG\SYNTAXEXCEPTION.OBJ|C:\USERS\TEST0\ONEDRIVE\שולחן העבודה\SADNA\X64\DEBUG\TYPE.OBJ|C:\USERS\TEST0\ONEDRIVE\שולחן העבודה\SADNA\X64\DEBUG\VOID.OBJ
C:\USERS\TEST0\ONEDRIVE\שולחן העבודה\SADNA\X64\DEBUG\SADNA.EXE
C:\USERS\TEST0\ONEDRIVE\שולחן העבודה\SADNA\X64\DEBUG\SADNA.ILK
C:\USERS\TEST0\ONEDRIVE\שולחן העבודה\SADNA\X64\DEBUG\SADNA.PDB
